
<footer>
	<center><div id="table-footer">
		<table id="menu">
	  		<tr>
	  			<td>
		  				<a href="Controller?type=redirect&where=info.jsp">Info</a>
		  			</td>
		  			<td>
		  				<a href="Controller?type=redirect&where=contatti.jsp">Contatti</a>
		  			</td>
		  			<td>
		  				<a href="Controller?type=redirect&where=dovesiamo.jsp">Dove siamo</a>
		  			</td>
		  			<td>
		  				<a href="Controller?type=redirect&where=servizilegali.jsp">Servizi legali</a>
		  			</td>
		  		</tr>
		  	</table>
		</div></center>
</footer>